"","Iteration","TimeStep","LandCover1","LandCover0","Change"
"1",0,0,40339,50148,1476
"2",0,1,38863,51624,1292
"3",0,2,37571,52916,1170
"4",0,3,36401,54086,1051
"5",0,4,35350,55137,962
"6",1,0,40339,50148,1527
"7",1,1,38812,51675,1277
"8",1,2,37535,52952,1199
"9",1,3,36336,54151,1077
"10",1,4,35259,55228,984
"11",2,0,40339,50148,1436
"12",2,1,38903,51584,1319
"13",2,2,37584,52903,1187
"14",2,3,36397,54090,1117
"15",2,4,35280,55207,967
