Predictor variable,Categorical,Sample average
bio_1,false,217.8
bio_10,false,240.82857142857142
bio_11,false,186.5142857142857
bio_12,false,1682.2571428571428
bio_13,false,337.74285714285713
bio_14,false,34.371428571428574
bio_15,false,81.65714285714286
bio_16,false,902.7714285714286
bio_17,false,130.8
bio_18,false,843.5714285714286
bio_19,false,163.05714285714285
bio_2,false,106.11428571428571
bio_3,false,64.48571428571428
bio_4,false,2187.2
bio_5,false,293.9142857142857
bio_6,false,130.6
bio_7,false,163.31428571428572
bio_8,false,240.11428571428573
bio_9,false,194.62857142857143
