"Type of Feeding Interaction","Log Mean Predator"," Log Median Predator","Log Mean Prey","Log Median Prey","Log Mean Prey/Predator Ratio","Log Mean Prey/Predator Ratio"
"insectivorous",1.71752969478494,-2.19580346259828,-1.77553328689167,0.540887034504899,-3.11903048989848,-2.61478173120941
"piscivorous",9.86169760777711,3.6692066637197,-3.3824944883702,2.28865832496894,1.81807677754543,-5.61677109766657
"planktivorous",7.93629266790568,-0.627075916379389,-1.28262071806907,2.07144624781892,-13.9524764130374,-9.82552601106642
"predacious",9.2526030723012,2.63774342032282,-2.87142690527236,2.22490492515681,-1.52326021619305,-8.29090928131431
"predacious/piscivorous",6.63939831147624,3.08606657072906,-3.05074937072455,1.89302134364096,2.61006979274201,-3.71028336277709
